,city,job_title,company_name,location,salary
0,Toronto,Data Scientist,Nielsen,"Toronto, ON",Nothing_found
1,Toronto,Applied Scientist,Cyclica Inc.,"Toronto, ON",Nothing_found
2,Toronto,"Data Scientist, Wealth Management Applied Analytics and Innovation",RBC,"Toronto, ON",Nothing_found
3,Toronto,Data Science Intern,Intelense Inc,"Toronto, ON",Nothing_found
4,Toronto,Data Scientist,Precision Nutrition,"Toronto, ON",Nothing_found
5,Toronto,Data Scientist,TRU LUV,"Toronto, ON",Nothing_found
6,Toronto,Data Scientist,NorthOne,"Toronto, ON",Nothing_found
7,Toronto,Data Science Co-op,Clearbanc,"Toronto, ON",Nothing_found
8,Toronto,Data Scientist,Clearbanc,"Toronto, ON",Nothing_found
9,Toronto,Data Scientist/Time Series,Scarsin,"Markham, ON",Nothing_found
10,Toronto,Principal Data Scientist,Xero,"Toronto, ON",Nothing_found
11,Toronto,Data Scientist,Aviva,"Toronto, ON",Nothing_found
12,Toronto,Data Scientist,MSi Corp (Bell Canada),"Toronto, ON",Nothing_found
13,Toronto,Data Scientist,Central 1 Credit Union,"Mississauga, ON",Nothing_found
14,Toronto,AI Developer – 4 Month Co-op/ Internship (Fall 2020),Intact,"Toronto, ON",Nothing_found
15,Toronto,Data Science – 4 Month Co-op/Internship (Fall 2020),Intact,"Toronto, ON",Nothing_found
16,Toronto,Data Scientist,Loblaw Digital,"Toronto, ON",Nothing_found
17,Toronto,"Data Scientist, Machine Learning and AI",Bell Canada,"Toronto, ON",Nothing_found
18,Toronto,Data Scientist,ASSURANCE,"Toronto, ON",Nothing_found
19,Toronto,"Data Scientist, Team Lead",KPMG,"Toronto, ON",Nothing_found
20,Toronto,Data Science Projects Mentor,1000ml Inc,"Toronto, ON",Nothing_found
21,Toronto,AI Developer – 4 Month Co-op/ Internship (Fall 2020),Intact,"Toronto, ON",Nothing_found
22,Toronto,Sr. Data Scientist,Fusion Analytics,"Toronto, ON",Nothing_found
23,Toronto,"Data Scientist, Team Lead",KPMG,"Toronto, ON",Nothing_found
24,Toronto,Data Scientist,Cerebri AI,"Toronto, ON",Nothing_found
25,Toronto,"Data Scientist, Machine Learning and AI",Bell Canada,"Toronto, ON",Nothing_found
26,Toronto,Data Scientist / Engineer,"LotusFlare, Inc.","Toronto, ON",Nothing_found
27,Toronto,Data Scientist,BrainStation,"Toronto, ON",Nothing_found
28,Toronto,Machine Learning Researcher,Resolver Inc.,"Toronto, ON",Nothing_found
29,Toronto,Machine Learning/Data Engineer,Xanadu Quantum Technologies Inc.,"Toronto, ON",Nothing_found
30,Toronto,"Educator, Data Science",BrainStation,"Toronto, ON",Nothing_found
31,Toronto,Machine Learning Engineer / Data Analyst,132 ENG Inc.,"Toronto, ON",Nothing_found
32,Toronto,Sr Data Scientist,407 ETR,"Woodbridge, ON",Nothing_found
33,Toronto,"Data Scientist, Team Lead",KPMG,"Toronto, ON",Nothing_found
34,Toronto,"Director, Data Science",Savormetrics Inc.,"Mississauga, ON",Nothing_found
35,Toronto,"Senior Analyst, Operations and Analytics",CPP Investments,"Toronto, ON",Nothing_found
36,Toronto,Data Science Developer,Bell Canada,"Toronto, ON",Nothing_found
37,Toronto,"Manager, Data Science, Intact Lab",Intact,"Toronto, ON",Nothing_found
38,Toronto,Senior Data Analyst,LifeLabs,"Toronto, ON",Nothing_found
39,Toronto,Machine Learning Researcher,Resolver Inc.,"Toronto, ON",Nothing_found
40,Toronto,AI Developer – 4 Month Co-op/ Internship (Fall 2020),Intact,"Toronto, ON",Nothing_found
41,Toronto,"Manager, Fraud Detection Analytics",RBC,"Toronto, ON",Nothing_found
42,Toronto,"Software Engineer, Machine Learning",ecobee,"Toronto, ON",Nothing_found
43,Toronto,Machine Learning Careers @ QUALCOMM Canada,Qualcomm,"Markham, ON",Nothing_found
44,Toronto,Machine Learning Researcher,Resolver Inc.,"Toronto, ON",Nothing_found
45,Toronto,Senior Data Scientist,Aviva,"Toronto, ON",Nothing_found
46,Toronto,"Manager, Data Science",Nielsen,"Toronto, ON",Nothing_found
47,Toronto,Senior Strategic Data Analyst (Temporary Contract),Centennial College,"Scarborough, ON",Nothing_found
48,Toronto,Data Science Developer,Bell Canada,"Toronto, ON",Nothing_found
49,Toronto,"Software Engineer, Machine Learning",ecobee,"Toronto, ON",Nothing_found
50,Toronto,Senior Machine Learning Scientist - Natural Language Processing,SoundHound Inc.,"Toronto, ON",Nothing_found
51,Toronto,Marketing Data Analyst,DDB,"Toronto, ON",Nothing_found
52,Toronto,Machine Learning Researcher,Resolver,"Toronto, ON",Nothing_found
53,Toronto,Business Development Director - AI and Data Science,Mitacs,"Toronto, ON",Nothing_found
54,Toronto,Data Science Sr. Manager,CITI,"Mississauga, ON",Nothing_found
55,Toronto,Machine Learning Engineer,Paytm,"Toronto, ON",Nothing_found
56,Toronto,Senior Data Analyst,LifeLabs,"Toronto, ON",Nothing_found
57,Toronto,Marketing Data Analyst,DDB,"Toronto, ON",Nothing_found
58,Toronto,AI Engineer,Cerebri AI,"Toronto, ON",Nothing_found
59,Toronto,Analyst - Advanced Analytics Team,Mosaic North America,"Toronto, ON",Nothing_found
60,Toronto,Senior Data Scientist,Rubikloud Technologies,"Toronto, ON",Nothing_found
61,Toronto,Sr. Business Data Analyst,Healthcare of Ontario Pension Plan (HOOPP),"Toronto, ON",Nothing_found
62,Toronto,"Product Manager, Fixed Income AI Analytics",Overbond,"Toronto, ON",Nothing_found
63,Toronto,Senior Software Engineer - Machine Learning,Zynga,"Toronto, ON",Nothing_found
64,Toronto,Director of Machine Learning Software Development - 78082,"Advanced Micro Devices, Inc.","Markham, ON",Nothing_found
65,Toronto,Senior Data Analyst,Rubikloud Technologies,"Toronto, ON",Nothing_found
66,Toronto,Senior Strategic Data Analyst (Temporary Contract until March 2021),Centennial College,"Toronto, ON",Nothing_found
67,Toronto,ML/ AI Developer,Fleet Complete,"Toronto, ON",Nothing_found
68,Toronto,Web Analytics Developer,IQ Hunt,"Toronto, ON",Nothing_found
69,Toronto,Senior Machine Learning System Software Engineer,Qualcomm,"Markham, ON",Nothing_found
70,Toronto,Tenure Track Position in Media Audiences & Analytics,Ryerson University,"Toronto, ON",Nothing_found
71,Toronto,Senior Machine Learning Engineer,Augmenta,"Toronto, ON",Nothing_found
72,Toronto,Senior Data Analyst,Rubikloud Technologies,"Toronto, ON",Nothing_found
73,Toronto,Analyst - Advanced Analytics Team,Mosaic North America,"Toronto, ON",Nothing_found
74,Toronto,"Senior Research Engineer, Machine Learning",SoundHound Inc.,"Toronto, ON",Nothing_found
75,Toronto,Sr. Machine Learning Engineer,CITI,"Mississauga, ON",Nothing_found
76,Toronto,"Senior Manager, Machine Learning",Bell Canada,"Toronto, ON",Nothing_found
77,Toronto,Sr GPU Product Manager (Machine Learning) - 78892,"Advanced Micro Devices, Inc.","Markham, ON",Nothing_found
78,Toronto,Senior Software Engineer - Machine Learning,Zynga,"Toronto, ON",Nothing_found
79,Toronto,"Senior Machine Learning Engineer, DevOps",Bell Canada,"Toronto, ON",Nothing_found
80,Toronto,Senior Machine Learning Engineer,Prophix Software Inc.,"Mississauga, ON",Nothing_found
81,Toronto,"Senior Actuarial Analyst, Business Analytics",Northbridge Financial Corporation,"Toronto, ON",Nothing_found
82,Toronto,Sr. Machine Learning Engineer,CITI,"Mississauga, ON",Nothing_found
83,Toronto,"Senior Actuarial Analyst, Business Analytics",Northbridge Financial Corporation,"Toronto, ON",Nothing_found
84,Toronto,Senior Software Engineer (Machine Learning Platform),Rubikloud Technologies,"Toronto, ON",Nothing_found
85,Toronto,Principal Engineer – Natural Language Processing,Prophix Software Inc.,"Mississauga, ON",Nothing_found
86,Toronto,Senior Big Data Developer (Cloud),StackPros,"Toronto, ON",Nothing_found
87,Toronto,Sr. Business Data Analyst,Healthcare of Ontario Pension Plan (HOOPP),"Toronto, ON",Nothing_found
88,Toronto,Web Analytics Developer,IQ Hunt,"Toronto, ON",Nothing_found
89,Toronto,Director of Machine Learning Software Development - 78082,"Advanced Micro Devices, Inc.","Markham, ON",Nothing_found
90,Toronto,AI Engineer,Cerebri AI,"Toronto, ON",Nothing_found
91,Toronto,Senior Data Engineer,Index Exchange,"Toronto, ON",Nothing_found
92,Toronto,Marketing Data Analyst,DDB,"Toronto, ON",Nothing_found
93,Toronto,Senior Strategic Data Analyst (Temporary Contract until March 2021),Centennial College,"Toronto, ON",Nothing_found
94,Toronto,Analyst - Advanced Analytics Team,Mosaic North America,"Toronto, ON",Nothing_found
95,Toronto,Analyst - Advanced Analytics Team,Mosaic North America,"Toronto, ON",Nothing_found
96,Toronto,Business Intelligence Engineer,World Vision Canada,"Mississauga, ON",Nothing_found
97,Toronto,Senior Data Engineer,Index Exchange,"Toronto, ON",Nothing_found
98,Toronto,NLP/ML Developer,Wysdom.AI,"Richmond Hill, ON",Nothing_found
99,Toronto,"Senior Manager, Machine Learning",Bell Canada,"Toronto, ON",Nothing_found
100,Toronto,Senior Machine Learning Engineer,Augmenta,"Toronto, ON",Nothing_found
101,Toronto,Principal Engineer – Natural Language Processing,Prophix Software Inc.,"Mississauga, ON",Nothing_found
102,Toronto,Senior Machine Learning Research Engineer,SoundHound Inc.,"Toronto, ON",Nothing_found
103,Toronto,Senior Machine Learning Engineer - Speech Recognition,SoundHound Inc.,"Toronto, ON",Nothing_found
104,Toronto,"Senior Machine Learning Engineer, DevOps",Bell Canada,"Toronto, ON",Nothing_found
105,Vancouver,Junior Data Scientist,DMG Blockchain Solutions Inc.,"Vancouver, BC",Nothing_found
106,Vancouver,Data Scientist,FORM,"Vancouver, BC",Nothing_found
107,Vancouver,Sr. Data Scientist,Visier Inc.,"Vancouver, BC",Nothing_found
108,Vancouver,Data Scientist,Central 1 Credit Union,"Vancouver, BC",Nothing_found
109,Vancouver,Data Scientist II,"AMZN CAN Fulfillment Svcs, ULC","Vancouver, BC",Nothing_found
110,Vancouver,Data Scientist & Analyst,NumerixS Quant,"Vancouver, BC",Nothing_found
111,Vancouver,Data Scientist - RACE21,Teck Resources Limited,"Vancouver, BC",Nothing_found
112,Vancouver,Data Scientist,Asana,"Vancouver, BC",Nothing_found
113,Vancouver,Data Analyst Co-Op,Electronic Arts,"Vancouver, BC",Nothing_found
114,Vancouver,Data Scientist,KoBold Metals,"Vancouver, BC",Nothing_found
115,Vancouver,Data Scientist I,"AMZN CAN Fulfillment Svcs, ULC","Vancouver, BC",Nothing_found
116,Vancouver,Associate Data Scientist,TrainTurf Academic Solutions Limited,"Vancouver, BC",Nothing_found
117,Vancouver,Machine Learning Scientist,AbCellera Biologics,"Vancouver, BC",Nothing_found
118,Vancouver,Data Scientist,BrainStation,"Vancouver, BC",Nothing_found
119,Vancouver,Machine Learning Engineer / Data Analyst,132 ENG Inc.,"Vancouver, BC",Nothing_found
120,Vancouver,"20-29 Data Scientist (Closing Date: May 28, 2020)",Technical Safety BC,"Vancouver, BC",Nothing_found
121,Vancouver,Data Scientist,Lightspark Software,"Vancouver, BC",Nothing_found
122,Vancouver,"Data Analyst, Sports Analytics",Electronic Arts,"Vancouver, BC",Nothing_found
123,Vancouver,Artificial Intelligence and Machine Learning Specialist,AerialX,"Vancouver, BC",Nothing_found
124,Vancouver,20-29 Data Scientist,Technical Safety BC,"Vancouver, BC",Nothing_found
125,Vancouver,"Data Analyst, Sports Analytics",Electronic Arts,"Vancouver, BC",Nothing_found
126,Vancouver,Data Scientist - RACE21,Teck Resources Limited,"Vancouver, BC",Nothing_found
127,Vancouver,Machine Learning Developer,Conexiom,"Vancouver, BC",Nothing_found
128,Vancouver,Senior Renewable Energy Data Analyst,Clir Renewables Inc.,"Vancouver, BC",Nothing_found
129,Vancouver,Senior Data Analyst,Plenty of Fish,"Vancouver, BC",Nothing_found
130,Vancouver,Applied Scientist II,"AMZN CAN Fulfillment Svcs, ULC","Vancouver, BC",Nothing_found
131,Vancouver,Senior Game Data Analyst,Kabam,"Vancouver, BC",Nothing_found
132,Vancouver,Machine Learning Backend Developer,Inverted AI,"Vancouver, BC",Nothing_found
133,Vancouver,Lead Data Scientist - RACE21,Teck Resources Limited,"Vancouver, BC",Nothing_found
134,Vancouver,Business Intelligence Analyst,iQmetrix,"Vancouver, BC",Nothing_found
135,Vancouver,Machine Learning Engineer,Prenuvo Inc,"Vancouver, BC",Nothing_found
136,Vancouver,Business Intelligence Analyst,iQmetrix,"Vancouver, BC",Nothing_found
137,Vancouver,Machine Learning Geoscientist,DATACLOUD,"Vancouver, BC",Nothing_found
138,Vancouver,Software Engineer – AI/ Machine Learning,Boast Capital,"Vancouver, BC",Nothing_found
139,Vancouver,Manager of Data Science - RACE21,Teck Resources Limited,"Vancouver, BC",Nothing_found
140,Vancouver,"Sr Director, EAV Analytics",Electronic Arts,"Vancouver, BC",Nothing_found
141,Vancouver,Senior Data Analyst,Plenty of Fish,"Vancouver, BC",Nothing_found
142,Vancouver,"Software Engineer, Machine Learning Optimization",Dialpad,"Vancouver, BC",Nothing_found
143,Vancouver,Senior Game Data Analyst,Kabam,"Vancouver, BC",Nothing_found
144,Vancouver,Technical Program Manager - Data Science,Global Relay,"Vancouver, BC",Nothing_found
145,Vancouver,Machine Learning Developer,Ecmarket/Conexiom,"Vancouver, BC",Nothing_found
146,Vancouver,"Senior Business Development Manager, AI - Vancouver, BC",Fujitsu,"Vancouver, BC",Nothing_found
147,Vancouver,"Senior UI Tools Engineer, Machine Learning",Unity Technologies,"Vancouver, BC",Nothing_found
148,Vancouver,Machine Learning Engineer,PressReader,"Richmond, BC",Nothing_found
149,Vancouver,Backend Developer/ ML Engineer (Vancouver),Klue,"Vancouver, BC",Nothing_found
150,Vancouver,Manager of Data Science - RACE21,Teck Resources Limited,"Vancouver, BC",Nothing_found
151,Vancouver,"Sr Director, EAV Analytics",Electronic Arts,"Vancouver, BC",Nothing_found
152,Vancouver,"Software Engineer, Machine Learning Optimization",Dialpad,"Vancouver, BC",Nothing_found
153,Vancouver,Technical Program Manager - Data Science,Global Relay,"Vancouver, BC",Nothing_found
154,Vancouver,Machine Learning Developer,Ecmarket/Conexiom,"Vancouver, BC",Nothing_found
155,Vancouver,Software Engineer – AI/ Machine Learning,Boast Capital,"Vancouver, BC",Nothing_found
156,Vancouver,"Senior UI Tools Engineer, Machine Learning",Unity Technologies,"Vancouver, BC",Nothing_found
157,Vancouver,"Senior Business Development Manager, AI - Vancouver, BC",Fujitsu,"Vancouver, BC",Nothing_found
158,Vancouver,Backend Developer/ ML Engineer (Vancouver),Klue,"Vancouver, BC",Nothing_found
159,Vancouver,Machine Learning Engineer,PressReader,"Richmond, BC",Nothing_found
160,Vancouver,Software Engineer [Machine Learning],FOSSA,"Vancouver, BC",Nothing_found
161,Vancouver,Business Intelligence Analyst,iQmetrix,"Vancouver, BC",Nothing_found
162,Vancouver,Lead Data Scientist,Global Relay,"Vancouver, BC",Nothing_found
163,Vancouver,Manager of Data Science - RACE21,Teck Resources Limited,"Vancouver, BC",Nothing_found
164,Vancouver,"Software Engineer, Machine Learning Optimization",Dialpad,"Vancouver, BC",Nothing_found
165,Vancouver,"Sr Director, EAV Analytics",Electronic Arts,"Vancouver, BC",Nothing_found
166,Vancouver,Technical Program Manager - Data Science,Global Relay,"Vancouver, BC",Nothing_found
167,Vancouver,Machine Learning Developer,Ecmarket/Conexiom,"Vancouver, BC",Nothing_found
168,Vancouver,Software Engineer – AI/ Machine Learning,Boast Capital,"Vancouver, BC",Nothing_found
169,Vancouver,"Senior Business Development Manager, AI - Vancouver, BC",Fujitsu,"Vancouver, BC",Nothing_found
170,Vancouver,"Senior UI Tools Engineer, Machine Learning",Unity Technologies,"Vancouver, BC",Nothing_found
171,Vancouver,Backend Developer/ ML Engineer (Vancouver),Klue,"Vancouver, BC",Nothing_found
172,Vancouver,Machine Learning Engineer,PressReader,"Richmond, BC",Nothing_found
173,Vancouver,Senior Renewable Energy Data Analyst,Clir Renewables Inc.,"Vancouver, BC",Nothing_found
174,Vancouver,Software Engineer – AI/ Machine Learning,Boast Capital,"Vancouver, BC",Nothing_found
175,Vancouver,Manager of Data Science - RACE21,Teck Resources Limited,"Vancouver, BC",Nothing_found
176,Vancouver,Technical Program Manager - Data Science,Global Relay,"Vancouver, BC",Nothing_found
177,Vancouver,"Educator, Data Science",BrainStation,"Vancouver, BC",Nothing_found
178,Vancouver,Senior Data Analyst,Plenty of Fish,"Vancouver, BC",Nothing_found
179,Vancouver,"Sr Director, EAV Analytics",Electronic Arts,"Vancouver, BC",Nothing_found
180,Vancouver,"Software Engineer, Machine Learning Optimization",Dialpad,"Vancouver, BC",Nothing_found
181,Vancouver,Machine Learning Developer,Ecmarket/Conexiom,"Vancouver, BC",Nothing_found
182,Vancouver,"Senior Business Development Manager, AI - Vancouver, BC",Fujitsu,"Vancouver, BC",Nothing_found
183,Vancouver,"Senior UI Tools Engineer, Machine Learning",Unity Technologies,"Vancouver, BC",Nothing_found
184,Vancouver,Machine Learning Engineer,PressReader,"Richmond, BC",Nothing_found
185,Vancouver,Backend Developer/ ML Engineer (Vancouver),Klue,"Vancouver, BC",Nothing_found
186,Vancouver,Senior Game Data Analyst,Kabam,"Vancouver, BC",Nothing_found
187,Vancouver,Senior Data Analyst,Plenty of Fish,"Vancouver, BC",Nothing_found
188,Vancouver,"Sr Director, EAV Analytics",Electronic Arts,"Vancouver, BC",Nothing_found
189,Vancouver,"Software Engineer, Machine Learning Optimization",Dialpad,"Vancouver, BC",Nothing_found
190,Vancouver,Technical Program Manager - Data Science,Global Relay,"Vancouver, BC",Nothing_found
191,Vancouver,Machine Learning Developer,Ecmarket/Conexiom,"Vancouver, BC",Nothing_found
192,Vancouver,"Senior Business Development Manager, AI - Vancouver, BC",Fujitsu,"Vancouver, BC",Nothing_found
193,Vancouver,"Senior UI Tools Engineer, Machine Learning",Unity Technologies,"Vancouver, BC",Nothing_found
194,Vancouver,Machine Learning Engineer,PressReader,"Richmond, BC",Nothing_found
195,Vancouver,Backend Developer/ ML Engineer (Vancouver),Klue,"Vancouver, BC",Nothing_found
196,Vancouver,Lead Data Scientist,Global Relay,"Vancouver, BC",Nothing_found
197,Vancouver,Software Engineer – AI/ Machine Learning,Boast Capital,"Vancouver, BC",Nothing_found
198,Vancouver,Manager of Data Science - RACE21,Teck Resources Limited,"Vancouver, BC",Nothing_found
199,Vancouver,Senior Game Data Analyst,Kabam,"Vancouver, BC",Nothing_found
200,Vancouver,Senior Data Analyst,Plenty of Fish,"Vancouver, BC",Nothing_found
201,Vancouver,"Sr Director, EAV Analytics",Electronic Arts,"Vancouver, BC",Nothing_found
202,Vancouver,Technical Program Manager - Data Science,Global Relay,"Vancouver, BC",Nothing_found
203,Vancouver,"Software Engineer, Machine Learning Optimization",Dialpad,"Vancouver, BC",Nothing_found
204,Vancouver,Machine Learning Developer,Ecmarket/Conexiom,"Vancouver, BC",Nothing_found
205,Vancouver,"Senior Business Development Manager, AI - Vancouver, BC",Fujitsu,"Vancouver, BC",Nothing_found
206,Vancouver,"Senior UI Tools Engineer, Machine Learning",Unity Technologies,"Vancouver, BC",Nothing_found
207,Vancouver,Machine Learning Engineer,PressReader,"Richmond, BC",Nothing_found
208,Vancouver,Backend Developer/ ML Engineer (Vancouver),Klue,"Vancouver, BC",Nothing_found
209,Montreal,Data scientist,Groupe Access,"Montréal, QC",Nothing_found
210,Montreal,Data Scientist,MSi Corp (Bell Canada),"Montréal, QC",Nothing_found
211,Montreal,Lead Data Scientist,Mely.ai,"Montréal, QC",Nothing_found
212,Montreal,Senior Data Scientist,Hopper,"Montréal, QC",Nothing_found
213,Montreal,Data Science- 4 months Co-op/Internship (Fall 2020),Intact,"Montréal, QC",Nothing_found
214,Montreal,Data Scientist Intern,Guavus,"Montréal, QC",Nothing_found
215,Montreal,Data Scientist,Zesty.ai,"Montréal, QC",Nothing_found
216,Montreal,Data Scientist - Marketing (m/f/d),MegaZebra GmbH,"Montréal, QC",Nothing_found
217,Montreal,Data Scientist,Novisto,"Montréal, QC",Nothing_found
218,Montreal,Data Scientist,DRW Trading Group,"Montréal, QC",Nothing_found
219,Montreal,Data Engineer or Scientist,Bombardier,"Dorval, QC",Nothing_found
220,Montreal,BI Analyst,MSi Corp (Bell Canada),"Montréal, QC",Nothing_found
221,Montreal,Machine Learning/Data Infrastructure Engineer,Wise Systems,"Montréal, QC",Nothing_found
222,Montreal,Data Scientist.,Brain Finance,"Montréal, QC",Nothing_found
223,Montreal,Senior Data Analyst,Les Recettes Cook it inc.,"Montréal, QC",Nothing_found
224,Montreal,Data Scientist.,Brain Finance,"Montréal, QC",Nothing_found
225,Montreal,Senior Data Analyst,Les Recettes Cook it inc.,"Montréal, QC",Nothing_found
226,Montreal,Senior Data Analyst,Autodesk,"Montréal, QC",Nothing_found
227,Montreal,"Visiting Scientist, AI (Montreal)",Facebook,"Montréal, QC",Nothing_found
228,Montreal,Data Scientist,Behaviour Interactive,"Montréal, QC",Nothing_found
229,Montreal,Machine Learning Engineer (remote),TandemLaunch,"Montréal, QC",Nothing_found
230,Montreal,Principal Applied Research Scientist,Dialogue,"Montréal, QC",Nothing_found
231,Montreal,Data Scientist,MindGeek Careers,"Montréal, QC",Nothing_found
232,Montreal,Data Engineer or Scientist - Product Owner,Bombardier,"Dorval, QC",Nothing_found
233,Montreal,Data Science Consultant,Planaxis | Groupaxis,"Montréal, QC",Nothing_found
234,Montreal,Research Scientist (AI),Facebook,"Montréal, QC",Nothing_found
235,Montreal,Senior Data Scientist - NLP,DRW,"Montréal, QC",Nothing_found
236,Montreal,"Manager, Fraud Detection Analytics - Montreal",RBC,"Montréal, QC",Nothing_found
237,Montreal,Deep Learning Software Developer,Algolux,"Montréal, QC",Nothing_found
238,Montreal,"Director, Business Analytics",Electronic Arts,"Montréal, QC",Nothing_found
239,Montreal,Data Science Consultant,Planaxis | Groupaxis,"Montréal, QC",Nothing_found
240,Montreal,Senior Data Scientist - NLP,DRW,"Montréal, QC",Nothing_found
241,Montreal,AI Developer – 4 Months Co-op/Internship (Fall 2020),Intact,"Montréal, QC",Nothing_found
242,Montreal,BI Analyst,MSi Corp (Bell Canada),"Montréal, QC",Nothing_found
243,Montreal,Deep Learning Software Developer,Algolux,"Montréal, QC",Nothing_found
244,Montreal,Senior Data Scientist - NLP,DRW Trading Group,"Montréal, QC",Nothing_found
245,Montreal,"Manager, Fraud Detection Analytics - Montreal",RBC,"Montréal, QC",Nothing_found
246,Montreal,Research Scientist (AI),Facebook,"Montréal, QC",Nothing_found
247,Montreal,Machine Learning Engineers / Machine Vision Engineers (two positions available),Orthogone Technologies,"Dorval, QC",Nothing_found
248,Montreal,Machine Learning QA Engineer,Behavox,"Montréal, QC",Nothing_found
249,Montreal,"Senior NLP Research Engineer (language models, text generation)",Behavox,"Montréal, QC",Nothing_found
250,Montreal,"Senior developer Backend AWS IoT, Machine Learning & AI",Services Conseils IntelliSoft inc.,"Montréal, QC",Nothing_found
251,Montreal,Machine Learning Research Engineer,MarketMuse,"Montréal, QC",Nothing_found
252,Montreal,Senior Software Developer – Analytics Platform Company,Groom & Associes,"Montréal, QC",Nothing_found
253,Montreal,Machine Learning Developer,Coveo,"Montréal, QC",Nothing_found
254,Montreal,AI Machine Learning - Business Development Manager,SKF,"Montréal, QC",Nothing_found
255,Montreal,Deep Learning Engineer,Deeplite,"Montréal, QC",Nothing_found
256,Montreal,Post-Doctoral (Artificial Intelligence in Finance),Overbond,"Montréal, QC",Nothing_found
257,Montreal,Machine Learning Engineer,Scribendi,"Montréal, QC",Nothing_found
258,Montreal,Senior Machine Learning Engineer,AdGear,"Montréal, QC",Nothing_found
259,Montreal,Machine Learning Product Manager,Liquid Analytics,"Montréal, QC",Nothing_found
260,Montreal,Team Lead - Game Analytics (User Research Lab),Ubisoft,"Montréal, QC",Nothing_found
261,Montreal,Marketing Analytics Developer,Adviso,"Montréal, QC",Nothing_found
262,Montreal,Machine Learning Engineer,MavTek,"Montréal, QC",Nothing_found
263,Montreal,Machine Learning Research Engineer,MarketMuse,"Montréal, QC",Nothing_found
264,Montreal,"Senior developer Backend AWS IoT, Machine Learning & AI",Services Conseils IntelliSoft inc.,"Montréal, QC",Nothing_found
265,Montreal,"Senior NLP Research Engineer (language models, text generation)",Behavox,"Montréal, QC",Nothing_found
266,Montreal,Machine Learning QA Engineer,Behavox,"Montréal, QC",Nothing_found
267,Montreal,Senior Software Developer – Analytics Platform Company,Groom & Associes,"Montréal, QC",Nothing_found
268,Montreal,AI Machine Learning - Business Development Manager,SKF,"Montréal, QC",Nothing_found
269,Montreal,Natural Language Processing Specialist,Bell Canada,"Dorval, QC",Nothing_found
270,Montreal,Machine Learning Engineer,MavTek,"Montréal, QC",Nothing_found
271,Montreal,Machine Learning Product Manager,Liquid Analytics,"Montréal, QC",Nothing_found
272,Montreal,Senior Machine Learning Engineer,AdGear,"Montréal, QC",Nothing_found
273,Montreal,Machine Learning Engineers / Machine Vision Engineers (two positions available),Orthogone Technologies,"Dorval, QC",Nothing_found
274,Montreal,Machine Learning Engineer,Scribendi,"Montréal, QC",Nothing_found
275,Montreal,Machine Learning Developer,Coveo,"Montréal, QC",Nothing_found
276,Montreal,Machine Learning QA Engineer,Behavox,"Montréal, QC",Nothing_found
277,Montreal,"Senior NLP Research Engineer (language models, text generation)",Behavox,"Montréal, QC",Nothing_found
278,Montreal,Marketing Analytics Developer,Adviso,"Montréal, QC",Nothing_found
279,Montreal,Machine Learning Research Engineer,MarketMuse,"Montréal, QC",Nothing_found
280,Montreal,Team Lead - Game Analytics (User Research Lab),Ubisoft,"Montréal, QC",Nothing_found
281,Montreal,Senior Software Developer – Analytics Platform Company,Groom & Associes,"Montréal, QC",Nothing_found
282,Montreal,"Senior developer Backend AWS IoT, Machine Learning & AI",Services Conseils IntelliSoft inc.,"Montréal, QC",Nothing_found
283,Montreal,Machine Learning Engineers / Machine Vision Engineers (two positions available),Orthogone Technologies,"Dorval, QC",Nothing_found
284,Montreal,Machine Learning Engineer,Scribendi,"Montréal, QC",Nothing_found
285,Montreal,Machine Learning Developer,Coveo,"Montréal, QC",Nothing_found
286,Montreal,Machine Learning QA Engineer,Behavox,"Montréal, QC",Nothing_found
287,Montreal,"Senior NLP Research Engineer (language models, text generation)",Behavox,"Montréal, QC",Nothing_found
288,Montreal,Marketing Analytics Developer,Adviso,"Montréal, QC",Nothing_found
289,Montreal,Machine Learning Research Engineer,MarketMuse,"Montréal, QC",Nothing_found
290,Montreal,Team Lead - Game Analytics (User Research Lab),Ubisoft,"Montréal, QC",Nothing_found
291,Montreal,Senior Software Developer – Analytics Platform Company,Groom & Associes,"Montréal, QC",Nothing_found
292,Montreal,"Senior developer Backend AWS IoT, Machine Learning & AI",Services Conseils IntelliSoft inc.,"Montréal, QC",Nothing_found
293,Montreal,Machine Learning Engineer,MavTek,"Montréal, QC",Nothing_found
294,Montreal,Machine Learning Engineer,Scribendi,"Montréal, QC",Nothing_found
295,Montreal,Machine Learning Product Manager,Liquid Analytics,"Montréal, QC",Nothing_found
296,Montreal,Machine Learning QA Engineer,Behavox,"Montréal, QC",Nothing_found
297,Montreal,Team Lead - Game Analytics (User Research Lab),Ubisoft,"Montréal, QC",Nothing_found
298,Montreal,Marketing Analytics Developer,Adviso,"Montréal, QC",Nothing_found
299,Montreal,"Senior NLP Research Engineer (language models, text generation)",Behavox,"Montréal, QC",Nothing_found
300,Montreal,"Senior developer Backend AWS IoT, Machine Learning & AI",Services Conseils IntelliSoft inc.,"Montréal, QC",Nothing_found
301,Montreal,Machine Learning Research Engineer,MarketMuse,"Montréal, QC",Nothing_found
302,Montreal,Senior Software Developer – Analytics Platform Company,Groom & Associes,"Montréal, QC",Nothing_found
303,Montreal,AI Machine Learning - Business Development Manager,SKF,"Montréal, QC",Nothing_found
304,Montreal,"Research Scientist, Artificial Intelligence (PhD)",Facebook,"Montréal, QC",Nothing_found
305,Montreal,Post-Doctoral (Artificial Intelligence in Finance),Overbond,"Montréal, QC",Nothing_found
306,Montreal,Senior Machine Learning Engineer,AdGear,"Montréal, QC",Nothing_found
307,Montreal,Deep Learning Engineer,Deeplite,"Montréal, QC",Nothing_found
308,Montreal,Machine Learning Engineer,Scribendi,"Montréal, QC",Nothing_found
309,Montreal,Machine Learning Product Manager,Liquid Analytics,"Montréal, QC",Nothing_found
310,Montreal,Machine Learning Engineer,MavTek,"Montréal, QC",Nothing_found
311,Montreal,Team Lead - Game Analytics (User Research Lab),Ubisoft,"Montréal, QC",Nothing_found
312,Montreal,Machine Learning QA Engineer,Behavox,"Montréal, QC",Nothing_found
313,Montreal,Marketing Analytics Developer,Adviso,"Montréal, QC",Nothing_found
314,Montreal,"Senior NLP Research Engineer (language models, text generation)",Behavox,"Montréal, QC",Nothing_found
315,Montreal,"Senior developer Backend AWS IoT, Machine Learning & AI",Services Conseils IntelliSoft inc.,"Montréal, QC",Nothing_found
316,Montreal,Machine Learning Research Engineer,MarketMuse,"Montréal, QC",Nothing_found
317,Montreal,Senior Software Developer – Analytics Platform Company,Groom & Associes,"Montréal, QC",Nothing_found
318,Montreal,Machine Learning Engineers / Machine Vision Engineers (two positions available),Orthogone Technologies,"Dorval, QC",Nothing_found
319,Montreal,Machine Learning Product Manager,Liquid Analytics,"Montréal, QC",Nothing_found
320,Montreal,Machine Learning Developer,Coveo,"Montréal, QC",Nothing_found
321,Montreal,"Senior NLP Research Engineer (language models, text generation)",Behavox,"Montréal, QC",Nothing_found
322,Montreal,Machine Learning QA Engineer,Behavox,"Montréal, QC",Nothing_found
323,Montreal,Marketing Analytics Developer,Adviso,"Montréal, QC",Nothing_found
324,Montreal,Machine Learning Research Engineer,MarketMuse,"Montréal, QC",Nothing_found
325,Montreal,Team Lead - Game Analytics (User Research Lab),Ubisoft,"Montréal, QC",Nothing_found
326,Montreal,Senior Software Developer – Analytics Platform Company,Groom & Associes,"Montréal, QC",Nothing_found
327,Montreal,"Senior developer Backend AWS IoT, Machine Learning & AI",Services Conseils IntelliSoft inc.,"Montréal, QC",Nothing_found
328,Calgary,Data Scientist,Kayak,"Calgary, AB",Nothing_found
329,Calgary,Data Analyst (Temporary Full-Time),Enerflex,"Calgary, AB",Nothing_found
330,Calgary,Geomatics/Data Imaging Scientist-Analyst,ITRES Research Limited,"Calgary, AB",Nothing_found
331,Calgary,Data Scientist,Replicon,"Calgary, AB",Nothing_found
332,Calgary,data scientist,Geomodeling Technology Corp,"Calgary, AB",Nothing_found
333,Calgary,Data Scientist,MobSquad,"Calgary, AB",Nothing_found
334,Calgary,"Python Software Developer, Data Science",RS Energy Group,"Calgary, AB",Nothing_found
335,Calgary,"Analytics Partner, Data Science and Analytics, Internal Assurance",ATB Financial,"Calgary, AB",Nothing_found
336,Calgary,Machine Learning Engineer,MobSquad,"Calgary, AB",Nothing_found
337,Calgary,"Senior IT Auditor/Data Analyst, Internal Audit",TC Energy,"Calgary, AB",Nothing_found
338,Calgary,Data Scientist,Kayak,"Calgary, AB",Nothing_found
339,Calgary,Geomatics/Data Imaging Scientist-Analyst,ITRES Research Limited,"Calgary, AB",Nothing_found
340,Calgary,data scientist,Geomodeling Technology Corp,"Calgary, AB",Nothing_found
341,Calgary,Data Scientist,Replicon,"Calgary, AB",Nothing_found
342,Calgary,Data Analyst (Temporary Full-Time),Enerflex,"Calgary, AB",Nothing_found
343,Calgary,"Python Software Developer, Data Science",RS Energy Group,"Calgary, AB",Nothing_found
344,Calgary,"Analytics Partner, Data Science and Analytics, Internal Assurance",ATB Financial,"Calgary, AB",Nothing_found
345,Calgary,Data Scientist,MobSquad,"Calgary, AB",Nothing_found
346,Calgary,"Senior IT Auditor/Data Analyst, Internal Audit",TC Energy,"Calgary, AB",Nothing_found
347,Calgary,Software Engineer – AI/ Machine Learning,Boast Capital,"Calgary, AB",Nothing_found
348,Calgary,Machine Learning Engineer,MobSquad,"Calgary, AB",Nothing_found
349,Calgary,Geomatics/Data Imaging Scientist-Analyst,ITRES Research Limited,"Calgary, AB",Nothing_found
350,Calgary,data scientist,Geomodeling Technology Corp,"Calgary, AB",Nothing_found
351,Calgary,Data Scientist,Replicon,"Calgary, AB",Nothing_found
352,Calgary,Data Analyst (Temporary Full-Time),Enerflex,"Calgary, AB",Nothing_found
353,Calgary,Data Scientist,MobSquad,"Calgary, AB",Nothing_found
354,Calgary,"Python Software Developer, Data Science",RS Energy Group,"Calgary, AB",Nothing_found
355,Calgary,"Analytics Partner, Data Science and Analytics, Internal Assurance",ATB Financial,"Calgary, AB",Nothing_found
356,Calgary,"Senior IT Auditor/Data Analyst, Internal Audit",TC Energy,"Calgary, AB",Nothing_found
357,Calgary,Machine Learning Engineer,MobSquad,"Calgary, AB",Nothing_found
358,Calgary,Software Engineer – AI/ Machine Learning,Boast Capital,"Calgary, AB",Nothing_found
359,Calgary,Data Analyst (Temporary Full-Time),Enerflex,"Calgary, AB",Nothing_found
360,Calgary,data scientist,Geomodeling Technology Corp,"Calgary, AB",Nothing_found
361,Calgary,Geomatics/Data Imaging Scientist-Analyst,ITRES Research Limited,"Calgary, AB",Nothing_found
362,Calgary,Data Scientist,Replicon,"Calgary, AB",Nothing_found
363,Calgary,Data Scientist,MobSquad,"Calgary, AB",Nothing_found
364,Calgary,"Python Software Developer, Data Science",RS Energy Group,"Calgary, AB",Nothing_found
365,Calgary,"Analytics Partner, Data Science and Analytics, Internal Assurance",ATB Financial,"Calgary, AB",Nothing_found
366,Calgary,"Senior IT Auditor/Data Analyst, Internal Audit",TC Energy,"Calgary, AB",Nothing_found
367,Calgary,Machine Learning Engineer,MobSquad,"Calgary, AB",Nothing_found
368,Calgary,Software Engineer – AI/ Machine Learning,Boast Capital,"Calgary, AB",Nothing_found
369,Calgary,Data Analyst (Temporary Full-Time),Enerflex,"Calgary, AB",Nothing_found
370,Calgary,Data Scientist,Replicon,"Calgary, AB",Nothing_found
371,Calgary,data scientist,Geomodeling Technology Corp,"Calgary, AB",Nothing_found
372,Calgary,Geomatics/Data Imaging Scientist-Analyst,ITRES Research Limited,"Calgary, AB",Nothing_found
373,Calgary,"Python Software Developer, Data Science",RS Energy Group,"Calgary, AB",Nothing_found
374,Calgary,Data Scientist,MobSquad,"Calgary, AB",Nothing_found
375,Calgary,"Analytics Partner, Data Science and Analytics, Internal Assurance",ATB Financial,"Calgary, AB",Nothing_found
376,Calgary,Software Engineer – AI/ Machine Learning,Boast Capital,"Calgary, AB",Nothing_found
377,Calgary,"Senior IT Auditor/Data Analyst, Internal Audit",TC Energy,"Calgary, AB",Nothing_found
378,Calgary,Machine Learning Engineer,MobSquad,"Calgary, AB",Nothing_found
379,Calgary,Geomatics/Data Imaging Scientist-Analyst,ITRES Research Limited,"Calgary, AB",Nothing_found
380,Calgary,data scientist,Geomodeling Technology Corp,"Calgary, AB",Nothing_found
381,Calgary,Data Analyst (Temporary Full-Time),Enerflex,"Calgary, AB",Nothing_found
382,Calgary,Data Scientist,Replicon,"Calgary, AB",Nothing_found
383,Calgary,Data Scientist,MobSquad,"Calgary, AB",Nothing_found
384,Calgary,"Python Software Developer, Data Science",RS Energy Group,"Calgary, AB",Nothing_found
385,Calgary,"Analytics Partner, Data Science and Analytics, Internal Assurance",ATB Financial,"Calgary, AB",Nothing_found
386,Calgary,"Senior IT Auditor/Data Analyst, Internal Audit",TC Energy,"Calgary, AB",Nothing_found
387,Calgary,Machine Learning Engineer,MobSquad,"Calgary, AB",Nothing_found
388,Calgary,Software Engineer – AI/ Machine Learning,Boast Capital,"Calgary, AB",Nothing_found
389,Calgary,Geomatics/Data Imaging Scientist-Analyst,ITRES Research Limited,"Calgary, AB",Nothing_found
390,Calgary,data scientist,Geomodeling Technology Corp,"Calgary, AB",Nothing_found
391,Calgary,Data Analyst (Temporary Full-Time),Enerflex,"Calgary, AB",Nothing_found
392,Calgary,Data Scientist,Replicon,"Calgary, AB",Nothing_found
393,Calgary,Data Scientist,MobSquad,"Calgary, AB",Nothing_found
394,Calgary,"Python Software Developer, Data Science",RS Energy Group,"Calgary, AB",Nothing_found
395,Calgary,"Analytics Partner, Data Science and Analytics, Internal Assurance",ATB Financial,"Calgary, AB",Nothing_found
396,Calgary,"Senior IT Auditor/Data Analyst, Internal Audit",TC Energy,"Calgary, AB",Nothing_found
397,Calgary,Machine Learning Engineer,MobSquad,"Calgary, AB",Nothing_found
398,Calgary,Software Engineer – AI/ Machine Learning,Boast Capital,"Calgary, AB",Nothing_found
399,Calgary,Data Analyst (Temporary Full-Time),Enerflex,"Calgary, AB",Nothing_found
400,Calgary,Geomatics/Data Imaging Scientist-Analyst,ITRES Research Limited,"Calgary, AB",Nothing_found
401,Calgary,Data Scientist,Replicon,"Calgary, AB",Nothing_found
402,Calgary,data scientist,Geomodeling Technology Corp,"Calgary, AB",Nothing_found
403,Calgary,Data Scientist,MobSquad,"Calgary, AB",Nothing_found
404,Calgary,"Python Software Developer, Data Science",RS Energy Group,"Calgary, AB",Nothing_found
405,Calgary,"Analytics Partner, Data Science and Analytics, Internal Assurance",ATB Financial,"Calgary, AB",Nothing_found
406,Calgary,Machine Learning Engineer,MobSquad,"Calgary, AB",Nothing_found
407,Calgary,"Senior IT Auditor/Data Analyst, Internal Audit",TC Energy,"Calgary, AB",Nothing_found
408,Calgary,Software Engineer – AI/ Machine Learning,Boast Capital,"Calgary, AB",Nothing_found
409,Calgary,Data Scientist,Kayak,"Calgary, AB",Nothing_found
410,Calgary,Geomatics/Data Imaging Scientist-Analyst,ITRES Research Limited,"Calgary, AB",Nothing_found
411,Calgary,data scientist,Geomodeling Technology Corp,"Calgary, AB",Nothing_found
412,Calgary,Data Analyst (Temporary Full-Time),Enerflex,"Calgary, AB",Nothing_found
413,Calgary,Data Scientist,Replicon,"Calgary, AB",Nothing_found
414,Calgary,Data Scientist,MobSquad,"Calgary, AB",Nothing_found
415,Calgary,"Python Software Developer, Data Science",RS Energy Group,"Calgary, AB",Nothing_found
416,Calgary,"Analytics Partner, Data Science and Analytics, Internal Assurance",ATB Financial,"Calgary, AB",Nothing_found
417,Calgary,"Senior IT Auditor/Data Analyst, Internal Audit",TC Energy,"Calgary, AB",Nothing_found
418,Calgary,Machine Learning Engineer,MobSquad,"Calgary, AB",Nothing_found
419,Calgary,Software Engineer – AI/ Machine Learning,Boast Capital,"Calgary, AB",Nothing_found
420,Calgary,data scientist,Geomodeling Technology Corp,"Calgary, AB",Nothing_found
421,Calgary,Geomatics/Data Imaging Scientist-Analyst,ITRES Research Limited,"Calgary, AB",Nothing_found
422,Calgary,Data Scientist,Replicon,"Calgary, AB",Nothing_found
423,Calgary,Data Analyst (Temporary Full-Time),Enerflex,"Calgary, AB",Nothing_found
424,Calgary,"Python Software Developer, Data Science",RS Energy Group,"Calgary, AB",Nothing_found
425,Calgary,Data Scientist,MobSquad,"Calgary, AB",Nothing_found
426,Calgary,"Analytics Partner, Data Science and Analytics, Internal Assurance",ATB Financial,"Calgary, AB",Nothing_found
427,Calgary,"Senior IT Auditor/Data Analyst, Internal Audit",TC Energy,"Calgary, AB",Nothing_found
428,Calgary,Software Engineer – AI/ Machine Learning,Boast Capital,"Calgary, AB",Nothing_found
429,Calgary,Machine Learning Engineer,MobSquad,"Calgary, AB",Nothing_found
430,Edmonton,Senior Data Scientist,Alberta Motor Association,"Edmonton, AB",Nothing_found
431,Edmonton,Machine Learning Engineer / Data Analyst,132 ENG Inc.,"Edmonton, AB",Nothing_found
432,Edmonton,Machine Learning Engineer,Medo,"Edmonton, AB",Nothing_found
433,Edmonton,Data Science Team Lead - AlphaLayer,AltaML Inc./Janalta Interactive Inc.,"Edmonton, AB",Nothing_found
434,Edmonton,NLP Engineer/Scientist,Eyes High Education and Technologies Ltd.,"Edmonton, AB",Nothing_found
435,Edmonton,Data Scientist,Frac Shack International,"Acheson, AB",Nothing_found
436,Edmonton,Solid-State Chemistry and Machine Learning for Materials Science,University of Alberta,"Edmonton, AB",Nothing_found
437,Edmonton,"Senior Manager, Big Data Platform",Alberta Motor Association,"Edmonton, AB",Nothing_found
438,Edmonton,Senior Data Scientist,Alberta Motor Association,"Edmonton, AB",Nothing_found
439,Edmonton,Machine Learning Engineer / Data Analyst,132 ENG Inc.,"Edmonton, AB",Nothing_found
440,Edmonton,Machine Learning Engineer,Medo,"Edmonton, AB",Nothing_found
441,Edmonton,Data Science Team Lead - AlphaLayer,AltaML Inc./Janalta Interactive Inc.,"Edmonton, AB",Nothing_found
442,Edmonton,NLP Engineer/Scientist,Eyes High Education and Technologies Ltd.,"Edmonton, AB",Nothing_found
443,Edmonton,Data Scientist,Frac Shack International,"Acheson, AB",Nothing_found
444,Edmonton,Solid-State Chemistry and Machine Learning for Materials Science,University of Alberta,"Edmonton, AB",Nothing_found
445,Edmonton,"Senior Manager, Big Data Platform",Alberta Motor Association,"Edmonton, AB",Nothing_found
446,Edmonton,Senior Data Scientist,Alberta Motor Association,"Edmonton, AB",Nothing_found
447,Edmonton,Machine Learning Engineer,Medo,"Edmonton, AB",Nothing_found
448,Edmonton,Machine Learning Engineer / Data Analyst,132 ENG Inc.,"Edmonton, AB",Nothing_found
449,Edmonton,NLP Engineer/Scientist,Eyes High Education and Technologies Ltd.,"Edmonton, AB",Nothing_found
450,Edmonton,Data Science Team Lead - AlphaLayer,AltaML Inc./Janalta Interactive Inc.,"Edmonton, AB",Nothing_found
451,Edmonton,Data Scientist,Frac Shack International,"Acheson, AB",Nothing_found
452,Edmonton,Solid-State Chemistry and Machine Learning for Materials Science,University of Alberta,"Edmonton, AB",Nothing_found
453,Edmonton,"Senior Manager, Big Data Platform",Alberta Motor Association,"Edmonton, AB",Nothing_found
